{
  "implemented": true,
  "name": "Elekid",
  "nationalPokedexNumber": 239,
  "primaryType": "electric",
  "abilities": [
    "static",
    "h:vitalspirit"
  ],
  "baseStats": {
    "hp": 45,
    "attack": 63,
    "defence": 37,
    "special_attack": 65,
    "special_defence": 55,
    "speed": 95
  },
  "catchRate": 45,
  "maleRatio": 0.75,
  "shoulderMountable": false,
  "baseExperienceYield": 72,
  "experienceGroup": "medium_fast",
  "eggCycles": 25,
  "eggGroups": [
    "undiscovered"
  ],
  "drops": {
    "amount": "2",
    "entries": [
      {
        "item": "minecraft:redstone",
        "percentage": 50
      },
      {
        "item": "cobblemon:electirizer",
        "quantityRange": "1",
        "percentage": 2.5
      }
    ]
  },
  "moves": [
    "1:leer",
    "1:quickattack",
    "4:thundershock",
    "8:charge",
    "12:swift",
    "16:shockwave",
    "20:thunderwave",
    "22:electroball",
    "24:screech",
    "28:thunderpunch",
    "32:discharge",
    "36:lowkick",
    "40:thunderbolt",
    "44:lightscreen",
    "48:thunder",
    "egg:barrier",
    "egg:crosschop",
    "egg:dynamicpunch",
    "egg:feint",
    "egg:firepunch",
    "egg:focuspunch",
    "egg:hammerarm",
    "egg:icepunch",
    "egg:karatechop",
    "egg:meditate",
    "egg:rollingkick",
    "tm:attract",
    "tm:bodyslam",
    "tm:brickbreak",
    "tm:captivate",
    "tm:chargebeam",
    "tm:confide",
    "tm:doubleteam",
    "tm:electroball",
    "tm:electroweb",
    "tm:endure",
    "tm:facade",
    "tm:firepunch",
    "tm:flash",
    "tm:fling",
    "tm:focuspunch",
    "tm:frustration",
    "tm:helpinghand",
    "tm:hiddenpower",
    "tm:icepunch",
    "tm:lightscreen",
    "tm:lowkick",
    "tm:megakick",
    "tm:megapunch",
    "tm:naturalgift",
    "tm:poweruppunch",
    "tm:protect",
    "tm:psychic",
    "tm:raindance",
    "tm:rest",
    "tm:return",
    "tm:rocksmash",
    "tm:round",
    "tm:screech",
    "tm:secretpower",
    "tm:shockwave",
    "tm:sleeptalk",
    "tm:snore",
    "tm:substitute",
    "tm:swagger",
    "tm:swift",
    "tm:thief",
    "tm:thunder",
    "tm:thunderbolt",
    "tm:thunderpunch",
    "tm:thunderwave",
    "tm:toxic",
    "tm:uproar",
    "tm:voltswitch",
    "tm:wildcharge",
    "tutor:attract",
    "tutor:barrier",
    "tutor:bodyslam",
    "tutor:counter",
    "tutor:covet",
    "tutor:crosschop",
    "tutor:curse",
    "tutor:detect",
    "tutor:doubleedge",
    "tutor:doubleteam",
    "tutor:dualchop",
    "tutor:dynamicpunch",
    "tutor:electroweb",
    "tutor:endure",
    "tutor:firepunch",
    "tutor:flash",
    "tutor:focuspunch",
    "tutor:frustration",
    "tutor:headbutt",
    "tutor:helpinghand",
    "tutor:hiddenpower",
    "tutor:icepunch",
    "tutor:karatechop",
    "tutor:leer",
    "tutor:lightscreen",
    "tutor:lowkick",
    "tutor:magnetrise",
    "tutor:meditate",
    "tutor:megakick",
    "tutor:megapunch",
    "tutor:mimic",
    "tutor:mudslap",
    "tutor:protect",
    "tutor:psychic",
    "tutor:quickattack",
    "tutor:raindance",
    "tutor:rest",
    "tutor:return",
    "tutor:rollingkick",
    "tutor:screech",
    "tutor:seismictoss",
    "tutor:shockwave",
    "tutor:signalbeam",
    "tutor:sleeptalk",
    "tutor:snore",
    "tutor:substitute",
    "tutor:swagger",
    "tutor:swift",
    "tutor:thief",
    "tutor:thunder",
    "tutor:thunderbolt",
    "tutor:thunderpunch",
    "tutor:thundershock",
    "tutor:thunderwave",
    "tutor:toxic",
    "tutor:uproar",
    "tutor:zapcannon"
  ],
  "labels": [
    "gen2",
    "baby"
  ],
  "pokedex": [
    "cobblemon.species.elekid.desc"
  ],
  "evolutions": [
    {
      "id": "elekid_electabuzz",
      "variant": "level_up",
      "result": "electabuzz",
      "consumeHeldItem": false,
      "learnableMoves": [],
      "requirements": [
        {
          "variant": "level",
          "minLevel": 30
        }
      ]
    }
  ],
  "baseScale": 0.8,
  "hitbox": {
    "width": 0.5,
    "height": 0.7,
    "fixed": false
  },
  "baseFriendship": 50,
  "evYield": {
    "hp": 0,
    "attack": 0,
    "defence": 0,
    "special_attack": 0,
    "special_defence": 0,
    "speed": 1
  },
  "height": 6,
  "weight": 235,
  "aspects": [],
  "cannotDynamax": false
}