{
  "implemented": true,
  "name": "Dragalge",
  "nationalPokedexNumber": 691,
  "primaryType": "poison",
  "secondaryType": "dragon",
  "abilities": [
    "poisonpoint",
    "poisontouch",
    "h:adaptability"
  ],
  "baseStats": {
    "hp": 65,
    "attack": 75,
    "defence": 90,
    "special_attack": 97,
    "special_defence": 123,
    "speed": 44
  },
  "catchRate": 55,
  "maleRatio": 0.5,
  "shoulderMountable": false,
  "baseExperienceYield": 173,
  "experienceGroup": "medium_fast",
  "eggCycles": 20,
  "eggGroups": [
    "water_1",
    "dragon"
  ],
  "behaviour": {
    "moving": {
      "walk": {
        "avoidsLand": true
      },
      "swim": {
        "canSwimInWater": true,
        "canBreatheUnderwater": true
      }
    }
  },
  "moves": [
    "1:acid",
    "1:dragontail",
    "1:feintattack",
    "1:smokescreen",
    "1:tackle",
    "1:twister",
    "1:watergun",
    "12:bubble",
    "15:tailwhip",
    "19:camouflage",
    "20:doubleteam",
    "25:poisontail",
    "30:waterpulse",
    "35:toxic",
    "40:dragonpulse",
    "45:aquatail",
    "52:sludgebomb",
    "59:hydropump",
    "66:outrage",
    "tm:acidspray",
    "tm:attract",
    "tm:bounce",
    "tm:chillingwater",
    "tm:confide",
    "tm:dive",
    "tm:doubleteam",
    "tm:dracometeor",
    "tm:dragonpulse",
    "tm:dragontail",
    "tm:endure",
    "tm:facade",
    "tm:focusblast",
    "tm:frustration",
    "tm:gigaimpact",
    "tm:gunkshot",
    "tm:hail",
    "tm:hiddenpower",
    "tm:hydropump",
    "tm:hyperbeam",
    "tm:icywind",
    "tm:irontail",
    "tm:liquidation",
    "tm:mudshot",
    "tm:mudslap",
    "tm:outrage",
    "tm:playrough",
    "tm:poisontail",
    "tm:protect",
    "tm:raindance",
    "tm:rest",
    "tm:return",
    "tm:round",
    "tm:scald",
    "tm:scaryface",
    "tm:secretpower",
    "tm:shadowball",
    "tm:sleeptalk",
    "tm:sludgebomb",
    "tm:sludgewave",
    "tm:snore",
    "tm:snowscape",
    "tm:substitute",
    "tm:surf",
    "tm:swagger",
    "tm:takedown",
    "tm:terablast",
    "tm:thief",
    "tm:thunder",
    "tm:thunderbolt",
    "tm:toxic",
    "tm:toxicspikes",
    "tm:venomdrench",
    "tm:venoshock",
    "tm:waterfall",
    "tm:waterpulse",
    "tutor:aquatail",
    "tutor:bounce",
    "tutor:dracometeor",
    "tutor:dragonpulse",
    "tutor:flipturn",
    "tutor:gunkshot",
    "tutor:icywind",
    "tutor:irontail",
    "tutor:outrage",
    "tutor:scaleshot",
    "tutor:shockwave",
    "tutor:snore",
    "tutor:waterpulse"
  ],
  "labels": [
    "gen6"
  ],
  "pokedex": [
    "cobblemon.species.dragalge.desc"
  ],
  "preEvolution": "skrelp",
  "evolutions": [],
  "baseScale": 1,
  "hitbox": {
    "width": 1,
    "height": 2.2,
    "fixed": false
  },
  "baseFriendship": 50,
  "evYield": {
    "hp": 0,
    "attack": 0,
    "defence": 0,
    "special_attack": 0,
    "special_defence": 2,
    "speed": 0
  },
  "height": 18,
  "weight": 815,
  "aspects": [],
  "cannotDynamax": false
}