{
  "implemented": true,
  "name": "Phantump",
  "nationalPokedexNumber": 708,
  "primaryType": "ghost",
  "secondaryType": "grass",
  "abilities": [
    "naturalcure",
    "frisk",
    "h:harvest"
  ],
  "baseStats": {
    "hp": 43,
    "attack": 70,
    "defence": 48,
    "special_attack": 50,
    "special_defence": 60,
    "speed": 38
  },
  "behaviour": {
    "resting": {
      "canSleep": true,
      "willSleepOnBed": true,
      "depth": "normal",
      "light": "0-4"
    }
  },
  "catchRate": 120,
  "maleRatio": 0.5,
  "shoulderMountable": false,
  "baseExperienceYield": 62,
  "experienceGroup": "medium_fast",
  "eggCycles": 20,
  "eggGroups": [
    "grass",
    "amorphous"
  ],
  "moves": [
    "1:astonish",
    "1:tackle",
    "4:branchpoke",
    "8:leechseed",
    "12:confuseray",
    "16:willowisp",
    "19:feintattack",
    "20:hex",
    "24:growth",
    "28:hornleech",
    "32:curse",
    "36:phantomforce",
    "40:ingrain",
    "44:woodhammer",
    "48:destinybond",
    "52:forestscurse",
    "egg:bestow",
    "egg:disable",
    "egg:grudge",
    "egg:imprison",
    "egg:poweruppunch",
    "egg:suckerpunch",
    "egg:venomdrench",
    "tm:allyswitch",
    "tm:attract",
    "tm:bulldoze",
    "tm:confide",
    "tm:cut",
    "tm:darkpulse",
    "tm:dig",
    "tm:doubleteam",
    "tm:dreameater",
    "tm:endure",
    "tm:energyball",
    "tm:facade",
    "tm:foulplay",
    "tm:frustration",
    "tm:gigadrain",
    "tm:grassknot",
    "tm:hex",
    "tm:hiddenpower",
    "tm:imprison",
    "tm:magicalleaf",
    "tm:naturepower",
    "tm:phantomforce",
    "tm:poisonjab",
    "tm:protect",
    "tm:psychic",
    "tm:reflect",
    "tm:rest",
    "tm:return",
    "tm:rockslide",
    "tm:rocksmash",
    "tm:round",
    "tm:safeguard",
    "tm:secretpower",
    "tm:seedbomb",
    "tm:shadowball",
    "tm:shadowclaw",
    "tm:skillswap",
    "tm:sleeptalk",
    "tm:snore",
    "tm:solarbeam",
    "tm:strength",
    "tm:substitute",
    "tm:sunnyday",
    "tm:swagger",
    "tm:thief",
    "tm:toxic",
    "tm:trick",
    "tm:trickroom",
    "tm:venomdrench",
    "tm:willowisp",
    "tutor:allyswitch",
    "tutor:foulplay",
    "tutor:gigadrain",
    "tutor:grassyglide",
    "tutor:magiccoat",
    "tutor:painsplit",
    "tutor:poltergeist",
    "tutor:roleplay",
    "tutor:seedbomb",
    "tutor:skillswap",
    "tutor:skittersmack",
    "tutor:snore",
    "tutor:spite",
    "tutor:telekinesis",
    "tutor:trick",
    "tutor:worryseed"
  ],
  "labels": [
    "gen6"
  ],
  "pokedex": [
    "cobblemon.species.phantump.desc"
  ],
  "evolutions": [
    {
      "id": "phantump_trevenant",
      "variant": "trade",
      "result": "trevenant",
      "consumeHeldItem": false,
      "learnableMoves": [
        "shadowclaw"
      ],
      "requirements": []
    }
  ],
  "baseScale": 0.9,
  "hitbox": {
    "width": 0.5,
    "height": 0.9,
    "fixed": false
  },
  "baseFriendship": 50,
  "evYield": {
    "hp": 0,
    "attack": 1,
    "defence": 0,
    "special_attack": 0,
    "special_defence": 0,
    "speed": 0
  },
  "height": 4,
  "weight": 70,
  "aspects": [],
  "cannotDynamax": false
}