{
  "implemented": true,
  "name": "Mabosstiff",
  "nationalPokedexNumber": 943,
  "primaryType": "dark",
  "abilities": [
    "intimidate",
    "guarddog",
    "h:stakeout"
  ],
  "baseStats": {
    "hp": 80,
    "attack": 120,
    "defence": 90,
    "special_attack": 60,
    "special_defence": 70,
    "speed": 85
  },
  "catchRate": 75,
  "maleRatio": 0.5,
  "baseExperienceYield": 177,
  "baseFriendship": 50,
  "evYield": {
    "hp": 0,
    "attack": 2,
    "defence": 0,
    "special_attack": 0,
    "special_defence": 0,
    "speed": 0
  },
  "experienceGroup": "medium_slow",
  "eggCycles": 20,
  "eggGroups": [
    "field"
  ],
  "moves": [
    "1:leer",
    "1:scaryface",
    "1:tackle",
    "4:lick",
    "7:snarl",
    "10:honeclaws",
    "14:bite",
    "18:roar",
    "22:headbutt",
    "26:payback",
    "34:crunch",
    "39:swagger",
    "43:reversal",
    "48:jawlock",
    "55:doubleedge",
    "60:outrage",
    "tm:bodyslam",
    "tm:charm",
    "tm:crunch",
    "tm:darkpulse",
    "tm:dig",
    "tm:endure",
    "tm:facade",
    "tm:faketears",
    "tm:firefang",
    "tm:gigaimpact",
    "tm:helpinghand",
    "tm:hyperbeam",
    "tm:hypervoice",
    "tm:icefang",
    "tm:outrage",
    "tm:playrough",
    "tm:protect",
    "tm:psychicfangs",
    "tm:raindance",
    "tm:rest",
    "tm:reversal",
    "tm:scaryface",
    "tm:sleeptalk",
    "tm:snarl",
    "tm:substitute",
    "tm:sunnyday",
    "tm:takedown",
    "tm:taunt",
    "tm:terablast",
    "tm:thief",
    "tm:thunderfang",
    "tm:trailblaze",
    "tm:wildcharge"
  ],
  "labels": [
    "gen9"
  ],
  "aspects": [],
  "height": 11,
  "weight": 610,
  "preEvolution": "maschiff",
  "evolutions": [],
  "baseScale": 0.7,
  "hitbox": {
    "width": 1.6,
    "height": 1.9,
    "fixed": false
  },
  "cannotDynamax": false,
  "pokedex": [
    "cobblemon.species.mabosstiff.desc"
  ]
}