{
  "implemented": true,
  "name": "Bouffalant",
  "nationalPokedexNumber": 626,
  "primaryType": "normal",
  "abilities": [
    "reckless",
    "sapsipper",
    "h:soundproof"
  ],
  "baseStats": {
    "hp": 95,
    "attack": 110,
    "defence": 95,
    "special_attack": 40,
    "special_defence": 95,
    "speed": 55
  },
  "catchRate": 45,
  "maleRatio": 0.5,
  "shoulderMountable": false,
  "baseExperienceYield": 172,
  "experienceGroup": "medium_fast",
  "eggCycles": 20,
  "eggGroups": [
    "field"
  ],
  "moves": [
    "1:leer",
    "1:pursuit",
    "1:tackle",
    "5:focusenergy",
    "6:rage",
    "10:furyattack",
    "15:revenge",
    "20:scaryface",
    "25:hornattack",
    "30:reversal",
    "35:throatchop",
    "40:headcharge",
    "45:swordsdance",
    "50:megahorn",
    "50:thrash",
    "55:gigaimpact",
    "egg:amnesia",
    "egg:belch",
    "egg:cottonguard",
    "egg:endeavor",
    "egg:headbutt",
    "egg:ironhead",
    "egg:mudshot",
    "egg:mudslap",
    "egg:rockclimb",
    "egg:skullbash",
    "egg:stomp",
    "tm:aerialace",
    "tm:amnesia",
    "tm:assurance",
    "tm:attract",
    "tm:bodyslam",
    "tm:bulldoze",
    "tm:closecombat",
    "tm:confide",
    "tm:cut",
    "tm:doubleteam",
    "tm:earthquake",
    "tm:endure",
    "tm:facade",
    "tm:focusenergy",
    "tm:frustration",
    "tm:gigaimpact",
    "tm:hiddenpower",
    "tm:highhorsepower",
    "tm:ironhead",
    "tm:megahorn",
    "tm:mudshot",
    "tm:outrage",
    "tm:payback",
    "tm:poisonjab",
    "tm:protect",
    "tm:raindance",
    "tm:rest",
    "tm:retaliate",
    "tm:return",
    "tm:revenge",
    "tm:reversal",
    "tm:rockslide",
    "tm:rocksmash",
    "tm:rocktomb",
    "tm:round",
    "tm:scaryface",
    "tm:secretpower",
    "tm:sleeptalk",
    "tm:smartstrike",
    "tm:snore",
    "tm:stompingtantrum",
    "tm:stoneedge",
    "tm:strength",
    "tm:substitute",
    "tm:sunnyday",
    "tm:superpower",
    "tm:surf",
    "tm:swagger",
    "tm:swordsdance",
    "tm:taunt",
    "tm:throatchop",
    "tm:toxic",
    "tm:uproar",
    "tm:wildcharge",
    "tm:workup",
    "tm:zenheadbutt",
    "tutor:earthquake",
    "tutor:endeavor",
    "tutor:facade",
    "tutor:headcharge",
    "tutor:ironhead",
    "tutor:lashout",
    "tutor:outrage",
    "tutor:rockslide",
    "tutor:sleeptalk",
    "tutor:snore",
    "tutor:stompingtantrum",
    "tutor:superpower",
    "tutor:uproar",
    "tutor:zenheadbutt"
  ],
  "labels": [
    "gen5"
  ],
  "pokedex": [
    "cobblemon.species.bouffalant.desc"
  ],
  "evolutions": [],
  "baseScale": 1.6,
  "hitbox": {
    "width": 1.3,
    "height": 1.5,
    "fixed": false
  },
  "baseFriendship": 50,
  "evYield": {
    "hp": 0,
    "attack": 2,
    "defence": 0,
    "special_attack": 0,
    "special_defence": 0,
    "speed": 0
  },
  "height": 16,
  "weight": 946,
  "aspects": [],
  "cannotDynamax": false
}