{
  "implemented": true,
  "name": "Maractus",
  "nationalPokedexNumber": 556,
  "primaryType": "grass",
  "abilities": [
    "waterabsorb",
    "chlorophyll",
    "h:stormdrain"
  ],
  "baseStats": {
    "hp": 75,
    "attack": 86,
    "defence": 67,
    "special_attack": 106,
    "special_defence": 67,
    "speed": 60
  },
  "catchRate": 255,
  "maleRatio": 0.5,
  "shoulderMountable": false,
  "baseExperienceYield": 161,
  "experienceGroup": "medium_fast",
  "eggCycles": 20,
  "eggGroups": [
    "grass"
  ],
  "moves": [
    "1:absorb",
    "1:afteryou",
    "1:ingrain",
    "1:peck",
    "1:spikyshield",
    "4:growth",
    "8:megadrain",
    "12:leechseed",
    "16:suckerpunch",
    "20:pinmissile",
    "22:needlearm",
    "24:gigadrain",
    "28:sweetscent",
    "32:synthesis",
    "36:petalblizzard",
    "40:cottonspore",
    "44:sunnyday",
    "48:solarbeam",
    "52:acupressure",
    "56:petaldance",
    "60:cottonguard",
    "egg:bounce",
    "egg:bulletseed",
    "egg:grasswhistle",
    "egg:grassyterrain",
    "egg:leechseed",
    "egg:seedbomb",
    "egg:spikes",
    "egg:woodhammer",
    "egg:worryseed",
    "tm:aerialace",
    "tm:assurance",
    "tm:attract",
    "tm:bounce",
    "tm:bulletseed",
    "tm:confide",
    "tm:doubleteam",
    "tm:drainpunch",
    "tm:endure",
    "tm:energyball",
    "tm:facade",
    "tm:frustration",
    "tm:gigadrain",
    "tm:grassknot",
    "tm:grassyterrain",
    "tm:helpinghand",
    "tm:hiddenpower",
    "tm:hypervoice",
    "tm:leafstorm",
    "tm:naturepower",
    "tm:pinmissile",
    "tm:poisonjab",
    "tm:protect",
    "tm:raindance",
    "tm:rest",
    "tm:return",
    "tm:round",
    "tm:safeguard",
    "tm:screech",
    "tm:secretpower",
    "tm:seedbomb",
    "tm:sleeptalk",
    "tm:snore",
    "tm:solarbeam",
    "tm:spikes",
    "tm:substitute",
    "tm:sunnyday",
    "tm:swagger",
    "tm:throatchop",
    "tm:toxic",
    "tm:uproar",
    "tm:weatherball",
    "tutor:afteryou",
    "tutor:bounce",
    "tutor:drainpunch",
    "tutor:endeavor",
    "tutor:gigadrain",
    "tutor:grassyglide",
    "tutor:helpinghand",
    "tutor:hypervoice",
    "tutor:knockoff",
    "tutor:leechseed",
    "tutor:pinmissile",
    "tutor:seedbomb",
    "tutor:sleeptalk",
    "tutor:snore",
    "tutor:spikes",
    "tutor:synthesis",
    "tutor:throatchop",
    "tutor:uproar",
    "tutor:worryseed"
  ],
  "labels": [
    "gen5"
  ],
  "pokedex": [
    "cobblemon.species.maractus.desc"
  ],
  "evolutions": [],
  "baseScale": 0.8,
  "hitbox": {
    "width": 1,
    "height": 1.5,
    "fixed": false
  },
  "baseFriendship": 50,
  "evYield": {
    "hp": 0,
    "attack": 0,
    "defence": 0,
    "special_attack": 2,
    "special_defence": 0,
    "speed": 0
  },
  "height": 10,
  "weight": 280,
  "aspects": [],
  "cannotDynamax": false
}