{
	"format_version": "1.12.0",
	"minecraft:geometry": [
		{
			"description": {
				"identifier": "geometry.flower",
				"texture_width": 16,
				"texture_height": 8,
				"visible_bounds_width": 2,
				"visible_bounds_height": 1.5,
				"visible_bounds_offset": [0, 0.25, 0]
			},
			"bones": [
				{
					"name": "flower",
					"pivot": [0, 0, 0],
					"cubes": [
						{"origin": [-1.5, -3, -1.5], "size": [3, 3, 3], "uv": [0, 0]}
					]
				}
			]
		}
	]
}