{
  "implemented": true,
  "name": "Steenee",
  "nationalPokedexNumber": 762,
  "primaryType": "grass",
  "abilities": [
    "leafguard",
    "oblivious",
    "h:sweetveil"
  ],
  "baseStats": {
    "hp": 52,
    "attack": 40,
    "defence": 48,
    "special_attack": 40,
    "special_defence": 48,
    "speed": 62
  },
  "catchRate": 120,
  "maleRatio": 0,
  "shoulderMountable": false,
  "baseExperienceYield": 102,
  "experienceGroup": "medium_slow",
  "eggCycles": 20,
  "eggGroups": [
    "grass"
  ],
  "moves": [
    "1:doubleslap",
    "1:flail",
    "1:playnice",
    "1:rapidspin",
    "1:razorleaf",
    "1:splash",
    "16:sweetscent",
    "22:magicalleaf",
    "28:stomp",
    "34:teeterdance",
    "37:captivate",
    "40:aromaticmist",
    "46:aromatherapy",
    "46:leafstorm",
    "tm:attract",
    "tm:bounce",
    "tm:bulletseed",
    "tm:charm",
    "tm:confide",
    "tm:dazzlinggleam",
    "tm:doubleteam",
    "tm:drainingkiss",
    "tm:endure",
    "tm:energyball",
    "tm:facade",
    "tm:fling",
    "tm:frustration",
    "tm:gigadrain",
    "tm:grassknot",
    "tm:grassyterrain",
    "tm:helpinghand",
    "tm:hiddenpower",
    "tm:leafstorm",
    "tm:lightscreen",
    "tm:lowsweep",
    "tm:magicalleaf",
    "tm:naturepower",
    "tm:payback",
    "tm:playrough",
    "tm:protect",
    "tm:reflect",
    "tm:rest",
    "tm:return",
    "tm:round",
    "tm:safeguard",
    "tm:seedbomb",
    "tm:sleeptalk",
    "tm:snore",
    "tm:solarbeam",
    "tm:substitute",
    "tm:sunnyday",
    "tm:swagger",
    "tm:swift",
    "tm:takedown",
    "tm:terablast",
    "tm:toxic",
    "tm:trailblaze",
    "tm:zenheadbutt",
    "tutor:bounce",
    "tutor:covet",
    "tutor:doubleslap",
    "tutor:endeavor",
    "tutor:gigadrain",
    "tutor:grassyglide",
    "tutor:helpinghand",
    "tutor:knockoff",
    "tutor:magicalleaf",
    "tutor:seedbomb",
    "tutor:snore",
    "tutor:sweetscent",
    "tutor:synthesis",
    "tutor:tripleaxel",
    "tutor:worryseed",
    "tutor:zenheadbutt"
  ],
  "labels": [
    "gen7"
  ],
  "pokedex": [
    "cobblemon.species.steenee.desc"
  ],
  "preEvolution": "bounsweet",
  "evolutions": [
    {
      "id": "steenee_tsareena",
      "variant": "level_up",
      "result": "tsareena",
      "consumeHeldItem": false,
      "learnableMoves": [
        "tropkick"
      ],
      "requirements": [
        {
          "variant": "has_move",
          "move": "stomp"
        }
      ]
    }
  ],
  "baseScale": 0.5,
  "hitbox": {
    "width": 1,
    "height": 1.4,
    "fixed": false
  },
  "baseFriendship": 50,
  "evYield": {
    "hp": 0,
    "attack": 0,
    "defence": 0,
    "special_attack": 0,
    "special_defence": 0,
    "speed": 2
  },
  "height": 7,
  "weight": 82,
  "aspects": [],
  "cannotDynamax": false
}