{
  "baseYield": {
    "min": 2,
    "max": 3
  },
  "preferredBiomeTags": [
    "cobblemon:is_jungle",
    "cobblemon:is_magical",
    "cobblemon:is_mountain",
    "cobblemon:is_sky",
    "cobblemon:is_volcanic"
  ],
  "growthTime": {
    "min": 50,
    "max": 60
  },
  "refreshRate": {
    "min": 16,
    "max": 26
  },
  "favoriteMulches": [
    "coarse",
    "humid"
  ],
  "growthFactors": [
    {
      "variant": "cobblemon:preferred_biome",
      "bonusYield": {
        "min": 1,
        "max": 2
      }
    }
  ],
  "spawnConditions": [
    {
      "variant": "cobblemon:preferred_biome",
      "minGroveSize": 3,
      "maxGroveSize": 5
    }
  ],
  "growthPoints": [
    {
      "position": {
        "x": 8.0,
        "y": 12.75,
        "z": 1.25
      },
      "rotation": {
        "x": 10.0,
        "y": 0.0,
        "z": 0.0
      }
    },
    {
      "position": {
        "x": 1.25,
        "y": 12.75,
        "z": 8.0
      },
      "rotation": {
        "x": 10.0,
        "y": 90.0,
        "z": 0.0
      }
    },
    {
      "position": {
        "x": 8.0,
        "y": 12.75,
        "z": 14.75
      },
      "rotation": {
        "x": 10.0,
        "y": -180.0,
        "z": 0.0
      }
    },
    {
      "position": {
        "x": 14.75,
        "y": 12.75,
        "z": 8.0
      },
      "rotation": {
        "x": 10.0,
        "y": -90.0,
        "z": 0.0
      }
    },
    {
      "position": {
        "x": 4.0,
        "y": 10.75,
        "z": 4.0
      },
      "rotation": {
        "x": 20.0,
        "y": 45.0,
        "z": 0.0
      }
    },
    {
      "position": {
        "x": 4.0,
        "y": 10.75,
        "z": 12.0
      },
      "rotation": {
        "x": 20.0,
        "y": 135.0,
        "z": 0.0
      }
    },
    {
      "position": {
        "x": 12.0,
        "y": 10.75,
        "z": 12.0
      },
      "rotation": {
        "x": 20.0,
        "y": -135.0,
        "z": 0.0
      }
    },
    {
      "position": {
        "x": 12.0,
        "y": 11.0,
        "z": 4.0
      },
      "rotation": {
        "x": 20.0,
        "y": -45.0,
        "z": 0.0
      }
    }
  ],
  "mutations": {
    "cobblemon:sitrus_berry": "cobblemon:enigma_berry",
    "cobblemon:enigma_berry": "cobblemon:pomeg_berry"
  },
  "sproutShape": [
    {
      "minX": 7,
      "minY": -1,
      "minZ": 7,
      "maxX": 9,
      "maxY": 0,
      "maxZ": 9
    }
  ],
  "matureShape": [
    {
      "minX": 0,
      "minY": 0,
      "minZ": 0,
      "maxX": 16,
      "maxY": 32,
      "maxZ": 16
    }
  ],
  "flavors": {
    "SWEET": 10,
    "BITTER": 20
  },
  "weight": 2.0,
  "tintIndexes": [],
  "flowerModel": "cobblemon:haban_flower.geo",
  "flowerTexture": "cobblemon:textures/berries/haban.png",
  "fruitModel": "cobblemon:haban_berry.geo",
  "fruitTexture": "cobblemon:textures/berries/haban.png"
}