{
  "baseYield": {
    "min": 2,
    "max": 3
  },
  "preferredBiomeTags": [
    "cobblemon:is_jungle",
    "cobblemon:is_sandy",
    "cobblemon:is_thermal",
    "cobblemon:is_volcanic"
  ],
  "growthTime": {
    "min": 50,
    "max": 60
  },
  "refreshRate": {
    "min": 16,
    "max": 26
  },
  "favoriteMulches": [
    "humid",
    "sandy"
  ],
  "growthFactors": [
    {
      "variant": "cobblemon:preferred_biome",
      "bonusYield": {
        "min": 1,
        "max": 2
      }
    }
  ],
  "randomizedGrowthPoints": true,
  "spawnConditions": [
    {
      "variant": "cobblemon:preferred_biome",
      "minGroveSize": 3,
      "maxGroveSize": 5
    }
  ],
  "growthPoints": [
    {
      "position": {
        "x": 10.0,
        "y": 27.75,
        "z": 4.0
      },
      "rotation": {
        "x": 117.5,
        "y": -60.0,
        "z": -120.0
      }
    },
    {
      "position": {
        "x": 6.0,
        "y": 27.75,
        "z": 4.0
      },
      "rotation": {
        "x": 115.0,
        "y": 60.0,
        "z": 112.5
      }
    },
    {
      "position": {
        "x": 4.0,
        "y": 27.75,
        "z": 6.0
      },
      "rotation": {
        "x": 5.0,
        "y": -17.5,
        "z": -27.5
      }
    },
    {
      "position": {
        "x": 4.0,
        "y": 27.75,
        "z": 10.0
      },
      "rotation": {
        "x": -177.5,
        "y": -5.0,
        "z": 152.5
      }
    },
    {
      "position": {
        "x": 6.0,
        "y": 27.75,
        "z": 12.0
      },
      "rotation": {
        "x": -70.0,
        "y": 60.0,
        "z": -75.0
      }
    },
    {
      "position": {
        "x": 10.0,
        "y": 27.75,
        "z": 12.0
      },
      "rotation": {
        "x": -65.0,
        "y": -55.0,
        "z": 62.5
      }
    },
    {
      "position": {
        "x": 12.0,
        "y": 27.75,
        "z": 10.0
      },
      "rotation": {
        "x": -175.0,
        "y": 7.5,
        "z": -155.0
      }
    },
    {
      "position": {
        "x": 12.0,
        "y": 27.75,
        "z": 6.0
      },
      "rotation": {
        "x": 117.5,
        "y": 82.5,
        "z": 145.0
      }
    }
  ],
  "mutations": {
    "cobblemon:sitrus_berry": "cobblemon:enigma_berry",
    "cobblemon:touga_berry": "cobblemon:tamato_berry"
  },
  "sproutShape": "lantern-sprout",
  "matureShape": "lantern-mature",
  "flavors": {
    "SPICY": 15,
    "SWEET": 10
  },
  "weight": 2.0,
  "tintIndexes": [],
  "flowerModel": "cobblemon:flower.geo",
  "flowerTexture": "cobblemon:textures/berries/flower.png",
  "fruitModel": "cobblemon:occa_berry.geo",
  "fruitTexture": "cobblemon:textures/berries/occa.png"
}