{
    "type": "minecraft:crafting_shaped",
    "pattern": [
        " SS",
        "WDS",
		"WW "
    ],
    "key": {
        "S": {
            "item": "minecraft:string"
        },
        "D": {
            "item": "minecraft:diamond"
        },
        "W": {
            "item": "minecraft:red_wool"
        }
    },
    "result": {
        "item": "cobblemon:destiny_knot"
    }
}
