{
    "enabled": "true",
    "neededInstalledMods": [],
    "neededUninstalledMods": [],
    "spawns": [
        {
            "id": "boldore-1",
            "pokemon": "boldore",
            "presets": [
                "natural"
            ],
            "type": "pokemon",
            "context": "grounded",
            "bucket": "common",
            "level": "25-39",
            "weight": 0.9,
            "condition": {
                "canSeeSky": false,
                "maxY":0,
                "biomes": [
                    "#cobblemon:is_overworld"
                ]
            }
        }
    ]
}