{
    "enabled": "true",
    "neededInstalledMods": [],
    "neededUninstalledMods": [],
    "spawns": [
        {
            "id": "spewpa-1",
            "pokemon": "spewpa",
            "presets": [
                "natural",
                "foliage"
            ],
            "type": "pokemon",
            "context": "grounded",
            "bucket": "common",
            "level": "9-21",
            "weight": 3.0,
            "condition": {
                "canSeeSky": true,
                "biomes": [
                    "#cobblemon:is_floral",
					"#cobblemon:is_plains",
					"#cobblemon:is_savanna"
                ]
            }
        }
    ]
}