{
    "enabled": "true",
    "neededInstalledMods": [],
    "neededUninstalledMods": [],
    "spawns": [
        {
            "id": "maushold-1",
            "pokemon": "maushold",
            "presets": [
                "natural",
				"wild"
            ],
            "type": "pokemon",
            "context": "grounded",
            "bucket": "common",
            "level": "25-47",
            "weight": 0.2,
			"weightMultiplier": {
                "multiplier": 0.25,
                "condition": {
                    "timeRange": "day"
                }
            },
            "condition": {
                "canSeeSky": true,
                "biomes": [
                    "#cobblemon:is_temperate"
                ]
            }
        },
		{
            "id": "maushold-2",
            "pokemon": "maushold",
            "presets": [
                "natural",
				"urban"
            ],
            "type": "pokemon",
            "context": "grounded",
            "bucket": "common",
            "level": "25-47",
            "weight": 0.6,
			"weightMultiplier": {
                "multiplier": 0.25,
                "condition": {
                    "timeRange": "day"
                }
            },
            "condition": {
                "canSeeSky": true,
                "biomes": [
                    "#cobblemon:is_overworld"
                ]
            },
			"anticondition": {
                "biomes": [
                    "#cobblemon:is_freezing",
					"#cobblemon:is_sandy"
                ],
                "structures": [
                    "#minecraft:village"
                ]
            }
        },
        {
            "id": "maushold-3",
            "pokemon": "maushold",
            "presets": [
                "natural",
				"village"
            ],
            "type": "pokemon",
            "context": "grounded",
            "bucket": "common",
            "level": "25-47",
            "weight": 0.6,
			"weightMultiplier": {
                "multiplier": 0.25,
                "condition": {
                    "timeRange": "day"
                }
            },
            "condition": {
                "canSeeSky": true,
                "biomes": [
                    "#cobblemon:is_overworld"
                ]
            },
			"anticondition": {
                "biomes": [
                    "#cobblemon:is_freezing",
					"#cobblemon:is_sandy"
                ]
            }
        },
		{
            "id": "maushold-4",
            "pokemon": "maushold",
            "presets": [
                "woodland_mansion"
            ],
            "type": "pokemon",
            "context": "grounded",
            "bucket": "common",
            "level": "25-47",
            "weight": 1.0,
            "condition": {
                "canSeeSky": false,
                "biomes": [
                    "#cobblemon:is_overworld"
                ]
            }
        }
    ]
}